module gitea.com/demachitse/xorm-forupdate-test-with-postgres

go 1.21.0

require (
	github.com/lib/pq v1.10.9
	xorm.io/builder v0.3.13
	xorm.io/xorm v1.3.3
)

replace (
	xorm.io/xorm => ../xorm
)

require (
	github.com/goccy/go-json v0.8.1 // indirect
	github.com/golang/snappy v0.0.4 // indirect
	github.com/json-iterator/go v1.1.12 // indirect
	github.com/modern-go/concurrent v0.0.0-20180228061459-e0a39a4cb421 // indirect
	github.com/modern-go/reflect2 v1.0.2 // indirect
	github.com/syndtr/goleveldb v1.0.0 // indirect
)
